<?xml version="1.0" encoding="UTF-8"?>
<svg width="19px" height="34px" viewBox="0 0 19 34" version="1.1" xmlns="http://www.w3.org/2000/svg" xmlns:xlink="http://www.w3.org/1999/xlink">
    <!-- Generator: Sketch 42 (36781) - http://www.bohemiancoding.com/sketch -->
    <title>chevron-left-small</title>
    <desc>Created with Sketch.</desc>
    <defs></defs>
    <g id="Page-1" stroke="none" stroke-width="1" fill="none" fill-rule="evenodd" stroke-linecap="round" stroke-linejoin="round">
        <g id="case-1" transform="translate(-206.000000, -3224.000000)" stroke="#5784FF">
            <g id="case-nav" transform="translate(208.000000, 3226.000000)">
                <g id="chevron-left-small">
                    <g transform="translate(7.500000, 15.000000) scale(-1, 1) translate(-7.500000, -15.000000) " id="chevron-right-small">
                        <polyline stroke-width="3" transform="translate(7.500000, 15.000000) rotate(90.000000) translate(-7.500000, -15.000000) " points="-7.5 22.5 7.5 7.5 7.5 7.5 22.5 22.5"></polyline>
                    </g>
                </g>
            </g>
        </g>
    </g>
</svg>